My R take on Advent of Code - Day 2 · r-tastic
…
strsplit(input, '\n') %>% unlist() %>% .[[1]] # get the first example

## [1] "xrecqmdonskvzupalfkwhjctdb"

Let’s split it by the letter, put it in a tibble and count each letter occurances:

strsplit(input, '\n') %>% unlist() %>% .[[1]] %>% # get the first example 
  strsplit('') %>% # split letters
  unlist() %>% # get a vector
  as_tibble() %>% # trasform vector to tibble
  rename_(letters = names(.)[1]) %>% # name the column: letters 
  count(letters)

## # A tibble: 23 x 2
##    letters     n
##    <chr>   <int>
##  1 a           1
##  2 b           1
##  3 c           2
##  4 d           2
##  5 e           1
##  6 f           1
##  7 h           1
##  8 j           1
##  9 k           2
## 10 l           1
## # ... with 13 more rows
…
