…
We're nearly there! Let's just define our explainer...

```
predict_model(x = automl_leader, newdata = as.data.frame(test_h2o[,-1]), type = 'raw') %>%
  tibble::as_tibble()
```

    ## # A tibble: 100 x 2
    ##        benign    malignant
    ##         <dbl>        <dbl>
    ##  1 0.99912117 0.0008788323
    ##  2 0.99911889 0.0008811068
    ##  3 0.86410812 0.1358918824
    ##  4 0.99884181 0.0011581938
    ##  5 0.02542826 0.9745717393
    ##  6 0.01327680 0.9867232037
    ##  7 0.02752797 0.9724720317
    ##  8 0.80216260 0.1978373974
    ##  9 0.99859496 0.0014050448
    ## 10 0.99271180 0.0072882030
    ## # ... with 90 more rows
…
