Star Wars Vs Star Trek Word Battle · r-tastic
…
st_tokens <- clean_star_trek %>%
  as_tibble() %>% 
  rename_(st_text = names(.)[1]) %>%
  mutate_if(is.factor, as.character) %>% 
  mutate(stt=unlist(st_text)) %>% 
  unique() %>% 
  unnest_tokens("word", st_text) %>% 
  anti_join(stop_words) %>% 
  count(word, sort = TRUE) %>% 
  rename(st_n = n)

sw_tokens

## # A tibble: 3,385 x 2
##    word      sw_n
##    <chr>    <int>
##  1 luke       726
##  2 int        314
##  3 han        269
##  4 star       235
##  5 death      229
##  6 threepio   217
##  7 cockpit    196
##  8 ben        176
##  9 ext        167
## 10 vader      162
## # ... with 3,375 more rows

TA-DA! Our tables are ready and squeky clean :) Now, I’ll use inner_join() to narrow down the data to only those words that the two scripts have in common. To compare the frequencies I’ll use a variable called log_word_prop: logarithm of the proportion between Star Wars and Star Trek word frequency. This means that the more positive the value, the more drastic the difference in frequency it is in favour of Star Wars. On the other hand, the more negative the value, the more commonly it was used in Star Trek (in comparison to Star Wars).

final_tokens = sw_tokens %>% 
  inner_join(st_tokens) %>% 
  mutate(log_word_prop =  round(log(sw_n / st_n),3),
         dominates_in = as.factor(ifelse(log_word_prop > 0, "star_wars", "star_trek"))) 

final_tokens

## # A tibble: 1,293 x 5
##    word     sw_n  st_n log_word_prop dominates_in
##    <chr>   <int> <int>         <dbl> <fct>       
##  1 int       314   110         1.05  star_wars   
##  2 star      235     9         3.26  star_wars   
##  3 death     229     1         5.43  star_wars   
##  4 ext       167    49         1.23  star_wars   
##  5 red       152     7         3.08  star_wars   
##  6 fighter   121     1         4.80  star_wars   
##  7 wing      112     1         4.72  star_wars   
##  8 ship      109    48         0.820 star_wars   
##  9 space      90    45         0.693 star_wars   
## 10 surface    87     5         2.86  star_wars   
## # ... with 1,283 more rows
…
